^C:\USERS\TEIR1PLUS2\DOCUMENTS\VISUAL STUDIO 2010\PROJECTS\FILE_MOD\FILE_MOD\FORM1.RESX|C:\USERS\TEIR1PLUS2\DOCUMENTS\VISUAL STUDIO 2010\PROJECTS\FILE_MOD\FILE_MOD\FORM2.RESX|C:\USERS\TEIR1PLUS2\DOCUMENTS\VISUAL STUDIO 2010\PROJECTS\FILE_MOD\FILE_MOD\PROPERTIES\RESOURCES.RESX
C:\USERS\TEIR1PLUS2\DOCUMENTS\VISUAL STUDIO 2010\PROJECTS\FILE_MOD\FILE_MOD\OBJ\X86\RELEASE\FILE_MOD.FORM1.RESOURCES
C:\USERS\TEIR1PLUS2\DOCUMENTS\VISUAL STUDIO 2010\PROJECTS\FILE_MOD\FILE_MOD\OBJ\X86\RELEASE\FILE_MOD.FORM2.RESOURCES
C:\USERS\TEIR1PLUS2\DOCUMENTS\VISUAL STUDIO 2010\PROJECTS\FILE_MOD\FILE_MOD\OBJ\X86\RELEASE\FILE_MOD.PROPERTIES.RESOURCES.RESOURCES
